{
  "store.custom#entrega": {
    "path": "/entrega"
  },
  "store.custom#como-comprar": {
    "path": "/pagamento"
  },
  "store.custom#privacidade": {
    "path": "/privacidade"
  },
  "store.custom#quem-somos": {
    "path": "/sobre"
  },
  "store.custom#seguro-comprar": {
    "path": "/seguro-comprar"
  },
  "store.custom#troca-e-devolucao": {
    "path": "/troca-e-devolucao"
  },
  "store.custom#perguntas": {
    "path": "/perguntas"
  },
  "store.custom#minha-lbm": {
    "path": "/lojas"
  }
}
