{
  // qf NEWSLETTER 
  "newsletter#qf-newsletter": {
    "props": {
      "blockClass": "qf-newsletter",
      "label": "Para receber novidades e conteúdos exclusivos, assine nossa newsletter!",
      "placeholder": "e-mail",
      "submit": "Enviar",
      "hideLabel": false
    }
  }
}
