<svg xmlns="http://www.w3.org/2000/svg" width="7.693" height="13.366" viewBox="0 0 7.693 13.366">
  <path id="angle-right-b" d="M7.371,5.946,1.711.3a1,1,0,1,0-1.42,1.41l4.95,5-4.95,4.95a1,1,0,1,0,1.42,1.41l5.66-5.65a1,1,0,0,0,0-1.47Z" fill="#fff"/>
</svg>
