<svg xmlns="http://www.w3.org/2000/svg" width="10.39" height="20" viewBox="0 0 10.39 20">
  <path id="facebook-f" d="M8.51,3.32h1.88V.14A26.11,26.11,0,0,0,7.65,0C4.93,0,3.07,1.66,3.07,4.7V7.32H0v3.56H3.07V20H6.75V10.88H9.81l.46-3.56H6.75V5.05C6.75,4,7.03,3.32,8.51,3.32Z" fill="#333"/>
</svg>
