<svg xmlns="http://www.w3.org/2000/svg" width="24" height="24" viewBox="0 0 24 24">
  <g id="Grupo_54" data-name="Grupo 54" transform="translate(-199 -741)">
    <g id="Icons_Shopping_store" data-name="Icons/Shopping/store" transform="translate(199 741)">
      <path id="store" d="M17,20H3a1,1,0,0,1-1-1V9.4A4.02,4.02,0,0,1,0,6a.592.592,0,0,1,.07-.18,1.108,1.108,0,0,1,0-.19l2-5A.993.993,0,0,1,3,0H17l.071,0A.994.994,0,0,1,18,.633l2,5a1.106,1.106,0,0,1,0,.19A.551.551,0,0,1,20,6a4.013,4.013,0,0,1-2,3.441V19A1,1,0,0,1,17,20ZM8,12h4a1,1,0,0,1,1,1v5h3V10a4,4,0,0,1-3-1.38,4,4,0,0,1-6,0A4,4,0,0,1,4,10v8H7V13A1,1,0,0,1,8,12Zm1,2v4h2V14H9ZM3.68,2h0L2,6.152A2,2,0,1,0,6,6,1,1,0,0,1,8,6a2,2,0,1,0,4,0,1,1,0,0,1,2,0,2,2,0,0,0,2,2h.005A2.008,2.008,0,0,0,18,6.152L16.32,2H3.68Z" transform="translate(2 1.998)" fill="#333"/>
    </g>
  </g>
</svg>
