{
  "footer-layout.mobile": {
    "props": {
      "blockClass": "footer-mobile"
    },
    "children": [
      "flex-layout.row#news-footer-mobile",
      "flex-layout.row#footer-links-mobile",
      "flex-layout.row#footer-complement",
      "flex-layout.row#footer-bottom"
    ]
  },
  "flex-layout.row#news-footer-mobile": {
    "children": [
      "newsletter#qf-newsletter",
      "flex-layout.row#socials-icons-mobile"
    ],
    "props": {
      "blockClass": "newsletter-row"
    }
  },
  "flex-layout.row#socials-icons-mobile": {
    "props": {
      "blockClass": "social-icons"
    },
    "children": [
      "image#facebook",
      "image#instagram",
      "image#tiktok",
      "image#youtube"
    ]
  },
  "flex-layout.row#footer-links-mobile": {
    "children": [
      "vtex.menu@2.x:menu#menu-links-mobile"
    ],
    "props": {
      "blockClass": "footer-links",
      "fullWidth": true
    }
  },
  "vtex.menu@2.x:menu#menu-links-mobile": {
    "props": {
      "orientation": "vertical",
      "blockClass": "footer-menu-links-mobile"
    },
    "children": [
      "menu-item#institucional-mobile",
      "menu-item#lojas-mobile",
      "menu-item#minha-conta-mobile",
      "menu-item#ajuda-mobile"
    ]
  }
}
