{
  "vtex.menu@2.x:menu#socials": {
    "props": {
      "orientation": "vertical",
      "blockClass": "footer-menu-links"
    },
    "children": ["rich-text#social", "flex-layout.row#socials-icons"]
  },
  "flex-layout.row#socials-icons": {
    "props": {
      "blockClass": "social-icons",
      "preventVerticalStretch": true,
      "preventHorizontalStretch": true
    },
    "children": [
      "image#facebook",
      "image#instagram",
      "image#tiktok",
      "image#youtube"
    ]
  },
  "rich-text#social": {
    "props": {
      "text": "Social",
      "blockClass": "footer-links-title"
    }
  },
  "image#facebook": {
    "props": {
      "src": "assets/svgs/facebook.svg",
      "blockClass": "social-image"
    }
  },
  "image#instagram": {
    "props": {
      "src": "assets/svgs/instagram.svg",
      "blockClass": "social-image"
    }
  },
  "image#tiktok": {
    "props": {
      "src": "assets/svgs/tiktok.svg",
      "blockClass": "social-image"
    }
  },
  "image#youtube": {
    "props": {
      "src": "assets/svgs/youtube.svg",
      "blockClass": "social-image"
    }
  }
}
